{
  "id": "piglin_1232-119-361",
  "name": "piglin",
  "groupName": "Метки",
  "icon": "journeymap:ui/img/waypoint-icon.png",
  "colorizedIcon": "fake:color--2010078-waypoint-icon.png",
  "x": 1232,
  "y": 119,
  "z": 361,
  "r": 225,
  "g": 84,
  "b": 34,
  "enable": false,
  "type": "Normal",
  "origin": "journeymap",
  "dimensions": [
    "minecraft:overworld"
  ],
  "persistent": true,
  "showDeviation": false,
  "iconColor": -1,
  "customIconColor": false
}