{
  "id": "stela_667-5-260",
  "name": "stela",
  "groupName": "Метки",
  "icon": "journeymap:ui/img/waypoint-icon.png",
  "colorizedIcon": "fake:color--3790361-waypoint-icon.png",
  "x": 667,
  "y": 5,
  "z": 260,
  "r": 198,
  "g": 41,
  "b": 231,
  "enable": false,
  "type": "Normal",
  "origin": "journeymap",
  "dimensions": [
    "minecraft:overworld"
  ],
  "persistent": true,
  "showDeviation": false,
  "iconColor": -1,
  "customIconColor": false
}